[
  {
    "id": 1,
    "name": "OrderProblem 1"
  },
  {
    "id": 2,
    "name": "OrderProblem 2"
  },
  {
    "id": 3,
    "name": "OrderProblem 3"
  },
  {
    "id": 4,
    "name": "OrderProblem 4"
  },
  {
    "id": 5,
    "name": "OrderProblem 5"
  },
  {
    "id": 6,
    "name": "OrderProblem 6"
  },
  {
    "id": 7,
    "name": "OrderProblem 7"
  },
  {
    "id": 8,
    "name": "OrderProblem 8"
  }
]
