[
  {
    "id": 1,
    "phoneNumber": "0158746546",
    "userName": "aaaaddasd",
    "email": "asdasaf@add.com",
    "password": "111111",
    "firstName": "kkkk",
    "middleName": "dddd",
    "lastName": "oooo"
  },
  {
    "id": 2,
    "phoneNumber": "0158746546",
    "userName": "aaaaddasd",
    "email": "asdasaf@add.com",
    "password": "111111",
    "firstName": "kkkk",
    "middleName": "dddd",
    "lastName": "oooo"
  },
  {
    "id": 3,
    "phoneNumber": "0158746546",
    "userName": "aaaaddasd",
    "email": "asdasaf@add.com",
    "password": "111111",
    "firstName": "kkkk",
    "middleName": "dddd",
    "lastName": "oooo"
  },
  {
    "id": 4,
    "phoneNumber": "0158746546",
    "userName": "aaaaddasd",
    "email": "asdasaf@add.com",
    "password": "111111",
    "firstName": "kkkk",
    "middleName": "dddd",
    "lastName": "oooo"
  },
  {
    "id": 4,
    "phoneNumber": "0158746546",
    "userName": "aaaaddasd",
    "email": "asdasaf@add.com",
    "password": "111111",
    "firstName": "kkkk",
    "middleName": "dddd",
    "lastName": "oooo"
  },
  {
    "id": 4,
    "phoneNumber": "0158746546",
    "userName": "aaaaddasd",
    "email": "asdasaf@add.com",
    "password": "111111",
    "firstName": "kkkk",
    "middleName": "dddd",
    "lastName": "oooo"
  },
  {
    "id": 4,
    "phoneNumber": "0158746546",
    "userName": "aaaaddasd",
    "email": "asdasaf@add.com",
    "password": "111111",
    "firstName": "kkkk",
    "middleName": "dddd",
    "lastName": "oooo"
  },
  {
    "id": 4,
    "phoneNumber": "0158746546",
    "userName": "aaaaddasd",
    "email": "asdasaf@add.com",
    "password": "111111",
    "firstName": "kkkk",
    "middleName": "dddd",
    "lastName": "oooo"
  },
  {
    "id": 4,
    "phoneNumber": "0158746546",
    "userName": "aaaaddasd",
    "email": "asdasaf@add.com",
    "password": "111111",
    "firstName": "kkkk",
    "middleName": "dddd",
    "lastName": "oooo"
  },
  {
    "id": 4,
    "phoneNumber": "0158746546",
    "userName": "aaaaddasd",
    "email": "asdasaf@add.com",
    "password": "111111",
    "firstName": "kkkk",
    "middleName": "dddd",
    "lastName": "oooo"
  },
  {
    "id": 4,
    "phoneNumber": "0158746546",
    "userName": "aaaaddasd",
    "email": "asdasaf@add.com",
    "password": "111111",
    "firstName": "kkkk",
    "middleName": "dddd",
    "lastName": "oooo"
  },
  {
    "id": 4,
    "phoneNumber": "0158746546",
    "userName": "aaaaddasd",
    "email": "asdasaf@add.com",
    "password": "111111",
    "firstName": "kkkk",
    "middleName": "dddd",
    "lastName": "oooo"
  },
  {
    "id": 4,
    "phoneNumber": "0158746546",
    "userName": "aaaaddasd",
    "email": "asdasaf@add.com",
    "password": "111111",
    "firstName": "kkkk",
    "middleName": "dddd",
    "lastName": "oooo"
  },
  {
    "id": 4,
    "phoneNumber": "0158746546",
    "userName": "aaaaddasd",
    "email": "asdasaf@add.com",
    "password": "111111",
    "firstName": "kkkk",
    "middleName": "dddd",
    "lastName": "oooo"
  },
  {
    "id": 4,
    "phoneNumber": "0158746546",
    "userName": "aaaaddasd",
    "email": "asdasaf@add.com",
    "password": "111111",
    "firstName": "kkkk",
    "middleName": "dddd",
    "lastName": "oooo"
  },
  {
    "id": 4,
    "phoneNumber": "0158746546",
    "userName": "aaaaddasd",
    "email": "asdasaf@add.com",
    "password": "111111",
    "firstName": "kkkk",
    "middleName": "dddd",
    "lastName": "oooo"
  },
  {
    "id": 4,
    "phoneNumber": "0158746546",
    "userName": "aaaaddasd",
    "email": "asdasaf@add.com",
    "password": "111111",
    "firstName": "kkkk",
    "middleName": "dddd",
    "lastName": "oooo"
  },
  {
    "id": 4,
    "phoneNumber": "0158746546",
    "userName": "aaaaddasd",
    "email": "asdasaf@add.com",
    "password": "111111",
    "firstName": "kkkk",
    "middleName": "dddd",
    "lastName": "oooo"
  },
  {
    "id": 4,
    "phoneNumber": "0158746546",
    "userName": "aaaaddasd",
    "email": "asdasaf@add.com",
    "password": "111111",
    "firstName": "kkkk",
    "middleName": "dddd",
    "lastName": "oooo"
  },
  {
    "id": 4,
    "phoneNumber": "0158746546",
    "userName": "aaaaddasd",
    "email": "asdasaf@add.com",
    "password": "111111",
    "firstName": "kkkk",
    "middleName": "dddd",
    "lastName": "oooo"
  },
  {
    "id": 4,
    "phoneNumber": "0158746546",
    "userName": "aaaaddasd",
    "email": "asdasaf@add.com",
    "password": "111111",
    "firstName": "kkkk",
    "middleName": "dddd",
    "lastName": "oooo"
  },
  {
    "id": 4,
    "phoneNumber": "0158746546",
    "userName": "aaaaddasd",
    "email": "asdasaf@add.com",
    "password": "111111",
    "firstName": "kkkk",
    "middleName": "dddd",
    "lastName": "oooo"
  },
  {
    "id": 4,
    "phoneNumber": "0158746546",
    "userName": "aaaaddasd",
    "email": "asdasaf@add.com",
    "password": "111111",
    "firstName": "kkkk",
    "middleName": "dddd",
    "lastName": "oooo"
  },
  {
    "id": 4,
    "phoneNumber": "0158746546",
    "userName": "aaaaddasd",
    "email": "asdasaf@add.com",
    "password": "111111",
    "firstName": "kkkk",
    "middleName": "dddd",
    "lastName": "oooo"
  },
  {
    "id": 4,
    "phoneNumber": "0158746546",
    "userName": "aaaaddasd",
    "email": "asdasaf@add.com",
    "password": "111111",
    "firstName": "kkkk",
    "middleName": "dddd",
    "lastName": "oooo"
  }
]
